{
    "_id": "BD_ALG_0007",
    "rel-link_id": "5ee9250b761cf87371cf3162",
    "question_name": "selection-sort",
    "question_path": "knowledge/Algorithms/algorithms-selection-sort",
    "question_type": "knowledge",
    "topic": "Algorithms",
    "disabled": false,
    "provisioned": 0,
    "attempts": 0,
    "passes": 0,
    "failures": 0,
    "question": "Pertaining to Time Complexity, what is the average case Big(O) for the selection sort algorithm for an array containing n elements?",
    "choices": [
        "O(1)",
        "O(n)",
        "O(n*log(n))",
        "O(n*n)"
    ],
    "answer": 3,
    "explanation": [
        "The average case sorting for selection sort is O(n*n)"
    ]
}