{
    "_id": "BD_ASM_0006",
    "rel-link_id": "5ee9250b761cf87371cf317a",
    "question_name": "assembly-arithmetic-instructions_5",
    "question_path": "knowledge/Assembly/assembly-arithmetic-instructions_5",
    "question_type": "knowledge",
    "topic": "Assembly",
    "disabled": false,
    "provisioned": 0,
    "attempts": 0,
    "passes": 0,
    "failures": 0,
    "question": "In Assembly, which of the following is the proper way to add 1 to the value stored in the rax register?",
    "choices": [
        "mov rax, rax+1",
        "rax++",
        "add rax, 1",
        "add rax+1"
    ],
    "answer": 2,
    "explanation": [
        "Incorrect: The + operator is not a valid opcode",
        "Incorrect: The ++ operator is not a valid opcode",
        "Correct: In assembly you use the add opcode, followed by the operand (in this case rax), followed by a comma and an amount to add",
        "Incorrect: The + operator is not a valid opcode"
    ]
}
