{
    "_id": "BD_ASM_0034",
    "rel-link_id": "5ee9250b761cf87371cf3169",
    "question_name": "assembly-stores-names",
    "question_path": "knowledge/Assembly/assembly-stores-names",
    "question_type": "knowledge",
    "topic": "Assembly",
    "disabled": false,
    "provisioned": 0,
    "attempts": 0,
    "passes": 0,
    "failures": 0,
    "question": "The assembler stores all the names and their corresponding values in the _____.",
    "choices": [
        "Special Purpose Register",
        "Symbol Table",
        "Value Map Set",
        "Stack"
    ],
    "answer": 1,
    "explanation": [
        "The symbol table contains information to locate and relocate symbolic definitions and references. The assembler creates the symbol table section for the object file. It makes an entry in the symbol table for each symbol that is defined or referenced in the input file and is needed during linking."
    ]
}