{
    "_id": "BD_PY_0002",
    "rel-link_id": "5ee9250b761cf87371cf323b",
    "question_name": "python-constructor",
    "question_path": "knowledge/Python/python-constructor",
    "question_type": "knowledge",
    "topic": "Python",
    "disabled": false,
    "provisioned": 0,
    "attempts": 0,
    "passes": 0,
    "failures": 0,
    "question": "In Object-oriented programming, what function's purpose is to initialize one or more of an object's attributes when it's originally created?",
    "choices": [
        "Constructor",
        "Initializer",
        "Setter",
        "Objectizer"
    ],
    "answer": 0,
    "explanation": [
        "The constructor is executed when an object is created and is designed to initialize an object's attributes upon creation. Setter functions can only be used after the object is created."
    ]
}