{
    "_id": "BD_C_0015",
    "rel-link_id": "5ee9250b761cf87371cf31c9",
    "question_name": "c-directives_2",
    "question_path": "knowledge/C_Programming/c-directives_2",
    "question_type": "knowledge",
    "topic": "C Programming",
    "disabled": false,
    "provisioned": 1,
    "attempts": 2,
    "passes": 2,
    "failures": 0,
    "question": "What is the output of the above C code snippet?",
    "snippet": "1 | const int a = 10;\n2 | printf(\"%d\",++a);\n3 | ",
    "snippet_lang": "c",
    "choices": [
        "11",
        "10",
        "Compiler error",
        "0"
    ],
    "answer": 2,
    "explanation": [
        "A compiler error will incur because a is declared as a const and any code that attempts to modify a will cause the compiler to error."
    ]
}