{
    "_id": "BD_C_0117",
    "rel-link_id": "5ee9250b761cf87371cf31c4",
    "question_name": "c-by-reference",
    "question_path": "knowledge/C_Programming/c-by-reference",
    "question_type": "knowledge",
    "topic": "C Programming",
    "disabled": false,
    "provisioned": 0,
    "attempts": 0,
    "passes": 0,
    "failures": 0,
    "question": "Given the above C code snippet, what are the values of x[0] and y after execution?",
    "snippet": "1 | void processData(int arr[], int size)\n2 | {\n 3 |   arr[0]++;\n4 |   size++;\n5 | }\n6 | int main()\n7 | {\n8 |    int x[] = {2,4,6,8};\n9 |    int y = 4;\n10 |    processData(x, y);\n11 | }",
    "snippet_lang": "c",
    "choices": [
        "x[0] is 2 and y is 4",
        "x[0] is 3 and y is 5",
        "x[0] is 3 and y is 4",
        "x[0] is 0 and y is 4"
    ],
    "answer": 2,
    "explanation": [
        "When an array name is passed to a function it is passed by reference. When a scalar variable, like an int variable, is passed to a function, it is passed by value. Because x is passed by reference, the variable arr inside the function is an alias to x, so any changes made via arr affect x.  This is not the same case for pass by value variables like y as a copy of the variable is made in the function and any changes to that variable do not effect the passed variable."
    ]
}