{
    "_id": "BD_NET_0045",
    "rel-link_id": "5f496238d17dd06ac0e4be3d",
    "question_name": "networking-osi-layer-two",
    "question_path": "knowledge/Networking/networking-osi-layer-two",
    "question_type": "knowledge",
    "topic": "Networking",
    "disabled": false,
    "provisioned": 0,
    "attempts": 0,
    "passes": 0,
    "failures": 0,
    "question": "Which of the following describe OSI layer 2?",
    "choices": [
        "The network layer that transmits data from one host to the other located in different networks. It also takes care of packet routing i.e. selection of the shortest path to transmit the packet, from the number of routes available",
        "The data link layer that is responsible for the node to node delivery of the message. The main function of this layer is to make sure data transfer is error-free from one node to another, over the physical layer.",
        "The transport layer that provides services to application layer and takes services from network layer. The data in the transport layer is referred to as Segments",
        "The application layer which is implemented by the network applications. These applications produce the data, which has to be transferred over the network."
    ],
    "answer": 1,
    "explanation": [
        "Incorrect: This is layer 3.",
        "Correct: This is layer 2.",
        "Incorrect: This is layer 4.",
        "Incorrect: this is layer 7."
    ]
}
