{
    "_id": "BD_PY_0018",
    "rel-link_id": "5ee9250b761cf87371cf322b",
    "question_name": "lists_5",
    "question_path": "knowledge/Python/python-group_1/lists_5",
    "question_type": "knowledge",
    "topic": "Python",
    "disabled": false,
    "provisioned": 1,
    "attempts": 2,
    "passes": 2,
    "failures": 0,
    "question": "What is the result of line 25 executing?",
    "snippet": "1  | def getAverage(GoT):\n2  |    tot = 0\n3  |    count = 0\n4  |    for rank in GoT.values():\n5  |       tot += rank\n6  |       count += 1\n7  | \n8  |    return int(tot/count)\n9  | \n10 | names = ['Cersei','Arya','Jon','Denerys','Tyrion','Jon','Sam','Arya'] \n11 |    \n12 | peeps = {'Jon':16,'Denerys':7,'Tyrion':15,'Cersei':2,'Arya':20}\n13 | \n14 | print(peeps[names[0]])\n15 | \n16 | peeps['Tyrion'] = 18\n17 | \n18 | avg = getAverage(peeps)\n19 | \n20 | castNames = {'Arya'}\n21 | \n22 | for name in names:\n23 |    castNames.add(name)\n24 | \n25 | print(names[len(names)])\n26 | ",
    "snippet_lang": "python",
    "choices": [
        "Prints the string Arya",
        "Prints Nothing",
        "List index out of range error",
        "Prints all strings in the list"
    ],
    "answer": 2,
    "explanation": [
        "Since the last index value of names is one minus its length, a list index out of range error occurs."
    ],
    "group": {
        "group_name": "python-group_1",
        "questions": [
            "BD_PY_0016",
            "BD_PY_0019",
            "BD_PY_0017",
            "BD_PY_0023",
            "BD_PY_0020",
            "BD_PY_0022",
            "BD_PY_0021",
            "BD_PY_0018",
            "BD_PY_0015"
        ]
    }
}