{
    "_id": "BD_PY_0113",
    "rel-link_id": "5ee9250b761cf87371cf3212",
    "question_name": "python-file-opening",
    "question_path": "knowledge/Python/python-file-opening",
    "question_type": "knowledge",
    "topic": "Python",
    "disabled": false,
    "provisioned": 0,
    "attempts": 0,
    "passes": 0,
    "failures": 0,
    "question": "What is the difference between the above functions?",
    "snippet": "1 | def do_files_1(filename):\n2 |    fd = os.open(filename)\n3 |    return fd.read()\n4 |\n5 |\n6 | def do_files_2(filename):\n7 |    with open(filename) as fd:\n8 |       return fd.read()\n9 | ",
    "snippet_lang": "python",
    "choices": [
        "There is no difference between the two functions",
        "The first functions only returns a file descriptor",
        "The second function closes the file",
        "The first function requires the absolute path while the second requires the relative path"
    ],
    "answer": 2,
    "explanation": [
        "The with context in the second function will automatically close the file when its scope is exited. even though there is a return function inside it the file will be closed before the function is exited since the with is no longer in scope. Conversely, os.open() will not close the file descriptor and it will remain open until os.close() is called."
    ]
}
