{
    "_id": "BD_C_0020",
    "rel-link_id": "5ee9250b761cf87371cf3205",
    "question_name": "c-function-basics_1",
    "question_path": "knowledge/C_Programming/c-function-basics_1",
    "question_type": "knowledge",
    "topic": "C Programming",
    "disabled": false,
    "provisioned": 1,
    "attempts": 2,
    "passes": 2,
    "failures": 0,
    "question": "The above C code is an example of a:",
    "snippet": "1 | double addValues(double, double);\n2 | ",
    "snippet_lang": "c",
    "choices": [
        "function",
        "method",
        "prototype",
        "procedure"
    ],
    "answer": 2,
    "explanation": [
        "a function prototype provides a definition of a functions signature. The signature of a function includes its name, return type, the number, order, and type of parameters. A prototype does not contain any executable code."
    ]
}