{
    "_id": "BD_C_0016",
    "rel-link_id": "5ee9250b761cf87371cf31d0",
    "question_name": "c-directives_3",
    "question_path": "knowledge/C_Programming/c-directives_3",
    "question_type": "knowledge",
    "topic": "C Programming",
    "disabled": false,
    "provisioned": 1,
    "attempts": 2,
    "passes": 2,
    "failures": 0,
    "question": "Which of the following is executed by the preprocessor in C?",
    "choices": [
        "#include<stdio.h>",
        "return 0",
        "void main (int argc , char ** argv)",
        "None of above"
    ],
    "answer": 0,
    "explanation": [
        "preprocessor instructions are preceded with a #. Examples include #define, #include, #pragma etc."
    ]
}
