{
    "_id": "BD_ASM_0028",
    "rel-link_id": "5ee9250b761cf87371cf317e",
    "question_name": "assembly-negative-bitwise_1",
    "question_path": "knowledge/Assembly/assembly-negative-bitwise_1",
    "question_type": "knowledge",
    "topic": "Assembly",
    "disabled": false,
    "provisioned": 0,
    "attempts": 0,
    "passes": 0,
    "failures": 0,
    "question": "In the above Assembly code, what's contained in the rax register when finished?",
    "snippet": "1 | mov rax, 1\n2 | shl rax, 1\n3 | shl rax, 3\n4 | ",
    "snippet_lang": "nasm",
    "choices": [
        "16",
        "8",
        "1",
        "2"
    ],
    "answer": 0,
    "explanation": [
        "Correct: mov rax, 1 establishes 00000001 in the register, shl (shift left) 1 modifies to: 00000010 (now 2), shl 3 modifies to: 00010000 (now 16)"
    ]
}
