{
    "_id": "BD_PY_0051",
    "rel-link_id": "5ee9250b761cf87371cf325a",
    "question_name": "python-tuple_1",
    "question_path": "knowledge/Python/python-tuple_1",
    "question_type": "knowledge",
    "topic": "Python",
    "disabled": false,
    "provisioned": 0,
    "attempts": 0,
    "passes": 0,
    "failures": 0,
    "question": "In the above Python snippet, which is a tuple?",
    "snippet": "1 | age_book = {\"Sam\" : 19, \"Timmy\" : 24, \"Beth\" : 22}\n2 | \n3 | ages = get_ages(age_book)\n4 | age_collection = [ages[0], ages[1], ages[2]]\n5 | \n6 | def get_ages(a):\n7 |     return a[\"Sam\"], a[\"Timmy\"], a[\"Beth\"]\n8 | ",
    "snippet_lang": "python",
    "choices": [
        "age_book",
        "ages",
        "age_collection",
        "Both ages and age_collection"
    ],
    "answer": 1,
    "explanation": [
        "Incorrect: This is a dictionary",
        "Correct: get_ages returns a tuple containing all of the return values",
        "Incorrect: This is a list",
        "Incorrect: ages is a tuple but age_collection is a list"
    ]
}