{
    "_id": "BD_PY_0035",
    "rel-link_id": "5ee9250b761cf87371cf325b",
    "question_name": "python-modules_1",
    "question_path": "knowledge/Python/python-modules_1",
    "question_type": "knowledge",
    "topic": "Python",
    "disabled": false,
    "provisioned": 0,
    "attempts": 0,
    "passes": 0,
    "failures": 0,
    "question": "In Python, the __________ statement is used to utilize other Python modules.",
    "choices": [
        "import",
        "include",
        "define",
        "module"
    ],
    "answer": 0,
    "explanation": [
        "Correct: the import statement brings in the code from the requested module",
        "Incorrect: this statement does not work in Python but would in C, C++, etc.",
        "Incorrect: the define statement is not used in Python but is used in C, C++, etc.",
        "Incorrect: this explains a python file that performs certain features; it isn't used to import modules"
    ]
}