{
    "_id": "BD_ASM_0026",
    "rel-link_id": "5ee9250b761cf87371cf317d",
    "question_name": "assembly-flags_2",
    "question_path": "knowledge/Assembly/assembly-flags_2",
    "question_type": "knowledge",
    "topic": "Assembly",
    "disabled": false,
    "provisioned": 0,
    "attempts": 0,
    "passes": 0,
    "failures": 0,
    "question": "In Assembly with a 32-bit architecture, what happens when an add or sub operation causes the 33rd bit to be modified?",
    "choices": [
        "The Carry Flag is set",
        "the rax register is set to 1",
        "the unsigned number becomes signed",
        "a virtual 64-bit register is created"
    ],
    "answer": 0,
    "explanation": [
        "The Carry Flag (CF) is set when an arithmetic borrow or carry occurs during add/sub - e.g. the result of an add would have set bit 33 (in x86), or bit 65 (in x86_64)"
    ]
}