{
    "_id": "BD_C_0116",
    "rel-link_id": "5ee9250b761cf87371cf31d2",
    "question_name": "return-address",
    "question_path": "knowledge/C_Programming/c-return-address",
    "question_type": "knowledge",
    "topic": "C Programming",
    "disabled": false,
    "provisioned": 0,
    "attempts": 0,
    "passes": 0,
    "failures": 0,
    "question": "Given the above C function, what logical problem exists?",
    "snippet": "1 | float *payIncrease(float factor)\n2 | {\n3 |     float salary[] = {24.5, 33.1, 17.2, 18.4};\n4 |     for(int i = 0; i < 4; i++)\n5 |         salary[i] *= factor;\n6 |     return salary;\n7 | }",
    "snippet_lang": "c",
    "choices": [
        "C does not support a return type of a pointer",
        "The function returns the address of a local array",
        "The for loop has a one-off error",
        "The array should have a declared size to prevent overflow"
    ],
    "answer": 1,
    "explanation": [
        "the function returns the address of salary which is a local array. Any caller to this function will receive an address to an array that no longer exists."
    ]
}