{
    "_id": "BD_NET_0025",
    "rel-link_id": "5ee9250b761cf87371cf31ab",
    "question_name": "networking-socket-types_1",
    "question_path": "knowledge/Networking/networking-socket-types_1",
    "question_type": "knowledge",
    "topic": "Networking",
    "disabled": false,
    "provisioned": 0,
    "attempts": 0,
    "passes": 0,
    "failures": 0,
    "question": "A TCP socket is different from a UDP socket because ___.",
    "choices": [
        "you have to specify both the IP address and the port, compared to UDP only requiring the IP address",
        "the TCP socket works in a send and forget model",
        "you have to connect to a remote node prior to sending a message",
        "the socket doesn't have to be closed when communication is finished like you would do with a UDP socket"
    ],
    "answer": 2,
    "explanation": [
        "Both TCP and UDP sockets require the IP address and port number of the destination node for proper communication and both should always be closed when finished. Since TCP is connection oriented, a connection must first be established before sending messages through a socket; UDP doesn't require a connection because it's connection-less."
    ]
}