{
    "_id": "BD_C_0021",
    "rel-link_id": "5ee9250b761cf87371cf31e8",
    "question_name": "c-functions_5",
    "question_path": "knowledge/C_Programming/c-functions_5",
    "question_type": "knowledge",
    "topic": "C Programming",
    "disabled": false,
    "provisioned": 0,
    "attempts": 0,
    "passes": 0,
    "failures": 0,
    "question": "Why does the above program cause a compile error?",
    "snippet": "1  | void main()\n2  | {\n3  |    fun(3);\n4  | }\n5  | \n6  | void fun(int n)\n7  | {\n8  |    for(int i = n;i > 0; i--)\n9  |      printf(\"GeeksQuiz\");\n10 | }\n11 | ",
    "snippet_lang": "c",
    "choices": [
        "The code has a syntax error in for loop header.",
        "fun in the main function has yet to be defined.",
        "fun is an invalid function name.",
        "n is not initialized in the for loop header."
    ],
    "answer": 1,
    "explanation": [
        "Incorrect: the syntax if the for loop is correct",
        "Correct: fun is yet to be defined when the compiler encounters it on line 3. It is necessary to define a prototype above main so the definition is known",
        "Incorrect: fun is a valid name for a function",
        "Incorrect: n is initialized when the function is called"
    ]
}
