{
    "_id": "BD_C_0055",
    "rel-link_id": "5ee9250b761cf87371cf31be",
    "question_name": "c-standard-library-functions_1",
    "question_path": "knowledge/C_Programming/c-standard-library-functions_1",
    "question_type": "knowledge",
    "topic": "C Programming",
    "disabled": false,
    "provisioned": 0,
    "attempts": 0,
    "passes": 0,
    "failures": 0,
    "question": "In C programming, what command releases memory that was created on the heap?",
    "choices": [
        "memfree",
        "free",
        "dealloc",
        "delete"
    ],
    "answer": 1,
    "explanation": [
        "The free function is what is used to release any memory allocated with malloc."
    ]
}