{
    "_id": "BD_NET_0033",
    "rel-link_id": "5ee9250b761cf87371cf31a2",
    "question_name": "networking-udp_1",
    "question_path": "knowledge/Networking/networking-udp_1",
    "question_type": "knowledge",
    "topic": "Networking",
    "disabled": false,
    "provisioned": 1,
    "attempts": 2,
    "passes": 2,
    "failures": 0,
    "question": "Compared to protocols like DNS or DHCP, UDP is different because ___.",
    "choices": [
        "it operates at the Transport layer of the Open Systems Interconnection (OSI) model",
        "it operates at the Application layer of the OSI model",
        "it can do the work of both DNS and DHCP",
        "it operates at the Network layer of the OSI model"
    ],
    "answer": 0,
    "explanation": [
        "UDP operates at the Transport layer of the OSI model and is a connection-less protocol because it sends data without guarantee of delivery. DNS and DHCP are both Application layer protocols that may use UDP for communication. DNS resolves domain names to IP addresses and DHCP manages a pool of IP addresses by leasing IPs to requesting nodes."
    ]
}