{
    "_id": "BD_NET_0026",
    "rel-link_id": "5ee9250b761cf87371cf3191",
    "question_name": "networking-socketserver_3",
    "question_path": "knowledge/Networking/networking-socketserver_3",
    "question_type": "knowledge",
    "topic": "Networking",
    "disabled": false,
    "provisioned": 0,
    "attempts": 0,
    "passes": 0,
    "failures": 0,
    "question": "The client in socket programming must know which information?",
    "choices": [
        "IP address of server",
        "Port number",
        "Both IP address of server and port number",
        "None of the above"
    ],
    "answer": 2,
    "explanation": [
        "Incorrect: Although the client does need the IP address, the client will also need to know the port number.",
        "Incorrect: Although the client does need the port number, the client will also need to know the IP address.",
        "Correct: The client needs the IP address and the port number for a successful connection.",
        "Incorrect: The client can not connect if nothing is provided."
    ]
}