{
    "_id": "BD_PY_0025",
    "rel-link_id": "5ee9250b761cf87371cf3256",
    "question_name": "python-lambda-function",
    "question_path": "knowledge/Python/python-lambda-function",
    "question_type": "knowledge",
    "topic": "Python",
    "disabled": false,
    "provisioned": 0,
    "attempts": 0,
    "passes": 0,
    "failures": 0,
    "question": "which of the following is not a difference between lambda functions and normal functions",
    "choices": [
        "lambda functions can only have one expression",
        "lambda functions can not use the return keyword",
        "lambda functions can not have names",
        "lambda functions can access variables from the function that called it"
    ],
    "answer": 2,
    "explanation": [
        "While lambda functions do not require an identifier, they can still be assigned a name and then called like a normal function."
    ]
}